results/issue-example2/spi_waveform.vcd
$date
    Today
$end
$version
    Icarus Verilog
$end
$timescale 1ns $end

$scope module spi_master_tb $end
$var wire 1 ! sclk $end
$var wire 1 " mosi $end
$var wire 1 # miso $end
$var wire 1 $ ss_n $end
$var wire 1 % busy $end
$var wire 1 & irq $end
$var wire 8 ' data $end
$upscope $end
$enddefinitions $end

$dumpvars
x!
x"
x#
1$
x%
x&
x'
$end

#0
0!
1"
0#
1$
0%
0&
b00000000'
#200
b00000001'
#400
b00000010'
#600
b00000011'
#800
b00000100'
#1000
b00000101'
#1200
b00000110'
#1400
b00000111'
#1600
b00001000'
#1800
b00001001'
#2000
1!
#2000
0"
#2000
b00001010'
#2200
b00001011'
#2400
b00001100'
#2600
b00001101'
#2800
b00001110'
#3000
1#
#3000
b00001111'
#3200
b00010000'
#3400
b00010001'
#3600
b00010010'
#3800
b00010011'
#4000
0!
#4000
1"
#4000
b00010100'
#4200
b00010101'
#4400
b00010110'
#4600
b00010111'
#4800
b00011000'
#5000
0#
#5000
b00011001'
#5200
b00011010'
#5400
b00011011'
#5600
b00011100'
#5800
b00011101'
#6000
1!
#6000
0"
#6000
b00011110'
#6200
b00011111'
#6400
b00100000'
#6600
b00100001'
#6800
b00100010'
#7000
b00100011'
#7200
b00100100'
#7400
b00100101'
#7600
b00100110'
#7800
b00100111'
#8000
0!
#8000
1"
#8000
1#
#8000
b00101000'
#8200
b00101001'
#8400
b00101010'
#8600
b00101011'
#8800
b00101100'
#9000
b00101101'
#9200
b00101110'
#9400
b00101111'
#9600
b00110000'
#9800
b00110001'
#10000
1!
#10000
0"
#10000
0#
#10000
b00110010'
#10200
0$
#10200
1%
#10200
b00110011'
#10400
b00110100'
#10600
b00110101'
#10800
b00110110'
#11000
b00110111'
#11200
b00111000'
#11400
b00111001'
#11600
b00111010'
#11800
b00111011'
#12000
0!
#12000
1"
#12000
b00111100'
#12200
b00111101'
#12400
b00111110'
#12600
b00111111'
#12800
b01000000'
#13000
1#
#13000
b01000001'
#13200
b01000010'
#13400
b01000011'
#13600
b01000100'
#13800
b01000101'
#14000
1!
#14000
0"
#14000
b01000110'
#14200
b01000111'
#14400
b01001000'
#14600
b01001001'
#14800
b01001010'
#15000
0#
#15000
b01001011'
#15200
b01001100'
#15400
b01001101'
#15600
b01001110'
#15800
b01001111'
#16000
0!
#16000
1"
#16000
b01010000'
#16200
b01010001'
#16400
b01010010'
#16600
b01010011'
#16800
b01010100'
#17000
b01010101'
#17200
b01010110'
#17400
b01010111'
#17600
b01011000'
#17800
b01011001'
#18000
1!
#18000
0"
#18000
1#
#18000
b01011010'
#18200
b01011011'
#18400
b01011100'
#18600
b01011101'
#18800
b01011110'
#19000
b01011111'
#19200
b01100000'
#19400
b01100001'
#19600
b01100010'
#19800
b01100011'
#20000
0!
#20000
1"
#20000
0#
#20000
b01100100'
#20200
b01100101'
#20400
b01100110'
#20600
b01100111'
#20800
b01101000'
#21000
b01101001'
#21200
b01101010'
#21400
b01101011'
#21600
b01101100'
#21800
b01101101'
#22000
1!
#22000
0"
#22000
b01101110'
#22200
b01101111'
#22400
b01110000'
#22600
b01110001'
#22800
b01110010'
#23000
1#
#23000
b01110011'
#23200
b01110100'
#23400
b01110101'
#23600
b01110110'
#23800
b01110111'
#24000
0!
#24000
1"
#24000
b01111000'
#24200
b01111001'
#24400
b01111010'
#24600
b01111011'
#24800
b01111100'
#25000
0#
#25000
b01111101'
#25200
b01111110'
#25400
b01111111'
#25600
b10000000'
#25800
b10000001'
#26000
1!
#26000
0"
#26000
b10000010'
#26200
b10000011'
#26400
b10000100'
#26600
b10000101'
#26800
b10000110'
#27000
b10000111'
#27200
b10001000'
#27400
b10001001'
#27600
b10001010'
#27800
b10001011'
#28000
0!
#28000
1"
#28000
1#
#28000
b10001100'
#28200
b10001101'
#28400
b10001110'
#28600
b10001111'
#28800
b10010000'
#29000
b10010001'
#29200
b10010010'
#29400
b10010011'
#29600
b10010100'
#29800
b10010101'
#30000
1!
#30000
0"
#30000
0#
#30000
1$
#30000
b10010110'
#30200
b10010111'
#30400
b10011000'
#30600
b10011001'
#30800
b10011010'
#31000
b10011011'
#31200
b10011100'
#31400
b10011101'
#31600
b10011110'
#31800
b10011111'
#32000
0!
#32000
1"
#32000
b10100000'
#32200
b10100001'
#32400
b10100010'
#32600
b10100011'
#32800
b10100100'
#33000
1#
#33000
b10100101'
#33200
b10100110'
#33400
b10100111'
#33600
b10101000'
#33800
b10101001'
#34000
1!
#34000
0"
#34000
b10101010'
#34200
b10101011'
#34400
b10101100'
#34600
b10101101'
#34800
b10101110'
#35000
0#
#35000
0%
#35000
1&
#35000
b10101111'
#35200
0&
#35200
b10110000'
#35400
b10110001'
#35600
b10110010'
#35800
b10110011'
#36000
0!
#36000
1"
#36000
b10110100'
#36200
b10110101'
#36400
b10110110'
#36600
b10110111'
#36800
b10111000'
#37000
b10111001'
#37200
b10111010'
#37400
b10111011'
#37600
b10111100'
#37800
b10111101'
#38000
1!
#38000
0"
#38000
1#
#38000
b10111110'
#38200
b10111111'
#38400
b11000000'
#38600
b11000001'
#38800
b11000010'
#39000
b11000011'
#39200
b11000100'
#39400
b11000101'
#39600
b11000110'
#39800
b11000111'
#40000
0!
#40000
1"
#40000
0#
#40000
b11001000'
#40200
b11001001'
#40400
b11001010'
#40600
b11001011'
#40800
b11001100'
#41000
b11001101'
#41200
b11001110'
#41400
b11001111'
#41600
b11010000'
#41800
b11010001'
#42000
1!
#42000
0"
#42000
b11010010'
#42200
b11010011'
#42400
b11010100'
#42600
b11010101'
#42800
b11010110'
#43000
1#
#43000
b11010111'
#43200
b11011000'
#43400
b11011001'
#43600
b11011010'
#43800
b11011011'
#44000
0!
#44000
1"
#44000
b11011100'
#44200
b11011101'
#44400
b11011110'
#44600
b11011111'
#44800
b11100000'
#45000
0#
#45000
b11100001'
#45200
b11100010'
#45400
b11100011'
#45600
b11100100'
#45800
b11100101'
#46000
1!
#46000
0"
#46000
b11100110'
#46200
b11100111'
#46400
b11101000'
#46600
b11101001'
#46800
b11101010'
#47000
b11101011'
#47200
b11101100'
#47400
b11101101'
#47600
b11101110'
#47800
b11101111'
#48000
0!
#48000
1"
#48000
1#
#48000
b11110000'
#48200
b11110001'
#48400
b11110010'
#48600
b11110011'
#48800
b11110100'
#49000
b11110101'
#49200
b11110110'
#49400
b11110111'
#49600
b11111000'
#49800
b11111001'
#50000
1!
#50000
0"
#50000
0#
#50000
b11111010'
#50200
b11111011'
#50400
b11111100'
#50600
b11111101'
#50800
b11111110'
#51000
b11111111'
#51200
b00000000'
#51400
b00000001'
#51600
b00000010'
#51800
b00000011'
#52000
0!
#52000
1"
#52000
b00000100'
#52200
b00000101'
#52400
b00000110'
#52600
b00000111'
#52800
b00001000'
#53000
1#
#53000
b00001001'
#53200
b00001010'
#53400
b00001011'
#53600
b00001100'
#53800
b00001101'
#54000
1!
#54000
0"
#54000
b00001110'
#54200
b00001111'
#54400
b00010000'
#54600
b00010001'
#54800
b00010010'
#55000
0#
#55000
b00010011'
#55200
b00010100'
#55400
b00010101'
#55600
b00010110'
#55800
b00010111'
#56000
0!
#56000
1"
#56000
b00011000'
#56200
b00011001'
#56400
b00011010'
#56600
b00011011'
#56800
b00011100'
#57000
b00011101'
#57200
b00011110'
#57400
b00011111'
#57600
b00100000'
#57800
b00100001'
#58000
1!
#58000
0"
#58000
1#
#58000
b00100010'
#58200
b00100011'
#58400
b00100100'
#58600
b00100101'
#58800
b00100110'
#59000
b00100111'
#59200
b00101000'
#59400
b00101001'
#59600
b00101010'
#59800
b00101011'
#60000
0!
#60000
1"
#60000
0#
#60000
b00101100'
#60200
b00101101'
#60400
b00101110'
#60600
b00101111'
#60800
b00110000'
#61000
b00110001'
#61200
b00110010'
#61400
b00110011'
#61600
b00110100'
#61800
b00110101'
#62000
1!
#62000
0"
#62000
b00110110'
#62200
b00110111'
#62400
b00111000'
#62600
b00111001'
#62800
b00111010'
#63000
1#
#63000
b00111011'
#63200
b00111100'
#63400
b00111101'
#63600
b00111110'
#63800
b00111111'
#64000
0!
#64000
1"
#64000
b01000000'
#64200
b01000001'
#64400
b01000010'
#64600
b01000011'
#64800
b01000100'
#65000
0#
#65000
b01000101'
#65200
b01000110'
#65400
b01000111'
#65600
b01001000'
#65800
b01001001'
#66000
1!
#66000
0"
#66000
b01001010'
#66200
b01001011'
#66400
b01001100'
#66600
b01001101'
#66800
b01001110'
#67000
b01001111'
#67200
b01010000'
#67400
b01010001'
#67600
b01010010'
#67800
b01010011'
#68000
0!
#68000
1"
#68000
1#
#68000
b01010100'
#68200
b01010101'
#68400
b01010110'
#68600
b01010111'
#68800
b01011000'
#69000
b01011001'
#69200
b01011010'
#69400
b01011011'
#69600
b01011100'
#69800
b01011101'
#70000
1!
#70000
0"
#70000
0#
#70000
b01011110'
#70200
b01011111'
#70400
b01100000'
#70600
b01100001'
#70800
b01100010'
#71000
b01100011'
#71200
b01100100'
#71400
b01100101'
#71600
b01100110'
#71800
b01100111'
#72000
0!
#72000
1"
#72000
b01101000'
#72200
b01101001'
#72400
b01101010'
#72600
b01101011'
#72800
b01101100'
#73000
1#
#73000
b01101101'
#73200
b01101110'
#73400
b01101111'
#73600
b01110000'
#73800
b01110001'
#74000
1!
#74000
0"
#74000
b01110010'
#74200
b01110011'
#74400
b01110100'
#74600
b01110101'
#74800
b01110110'
#75000
0#
#75000
b01110111'
#75200
b01111000'
#75400
b01111001'
#75600
b01111010'
#75800
b01111011'
#76000
0!
#76000
1"
#76000
b01111100'
#76200
b01111101'
#76400
b01111110'
#76600
b01111111'
#76800
b10000000'
#77000
b10000001'
#77200
b10000010'
#77400
b10000011'
#77600
b10000100'
#77800
b10000101'
#78000
1!
#78000
0"
#78000
1#
#78000
b10000110'
#78200
b10000111'
#78400
b10001000'
#78600
b10001001'
#78800
b10001010'
#79000
b10001011'
#79200
b10001100'
#79400
b10001101'
#79600
b10001110'
#79800
b10001111'
#80000
0!
#80000
1"
#80000
0#
#80000
b10010000'
#80200
b10010001'
#80400
b10010010'
#80600
b10010011'
#80800
b10010100'
#81000
b10010101'
#81200
b10010110'
#81400
b10010111'
#81600
b10011000'
#81800
b10011001'
#82000
1!
#82000
0"
#82000
b10011010'
#82200
b10011011'
#82400
b10011100'
#82600
b10011101'
#82800
b10011110'
#83000
1#
#83000
b10011111'
#83200
b10100000'
#83400
b10100001'
#83600
b10100010'
#83800
b10100011'
#84000
0!
#84000
1"
#84000
b10100100'
#84200
b10100101'
#84400
b10100110'
#84600
b10100111'
#84800
b10101000'
#85000
0#
#85000
b10101001'
#85200
b10101010'
#85400
b10101011'
#85600
b10101100'
#85800
b10101101'
#86000
1!
#86000
0"
#86000
b10101110'
#86200
b10101111'
#86400
b10110000'
#86600
b10110001'
#86800
b10110010'
#87000
b10110011'
#87200
b10110100'
#87400
b10110101'
#87600
b10110110'
#87800
b10110111'
#88000
0!
#88000
1"
#88000
1#
#88000
b10111000'
#88200
b10111001'
#88400
b10111010'
#88600
b10111011'
#88800
b10111100'
#89000
b10111101'
#89200
b10111110'
#89400
b10111111'
#89600
b11000000'
#89800
b11000001'
#90000
1!
#90000
0"
#90000
0#
#90000
b11000010'
#90200
b11000011'
#90400
b11000100'
#90600
b11000101'
#90800
b11000110'
#91000
b11000111'
#91200
b11001000'
#91400
b11001001'
#91600
b11001010'
#91800
b11001011'
#92000
0!
#92000
1"
#92000
b11001100'
#92200
b11001101'
#92400
b11001110'
#92600
b11001111'
#92800
b11010000'
#93000
1#
#93000
b11010001'
#93200
b11010010'
#93400
b11010011'
#93600
b11010100'
#93800
b11010101'
#94000
1!
#94000
0"
#94000
b11010110'
#94200
b11010111'
#94400
b11011000'
#94600
b11011001'
#94800
b11011010'
#95000
0#
#95000
b11011011'
#95200
b11011100'
#95400
b11011101'
#95600
b11011110'
#95800
b11011111'
#96000
0!
#96000
1"
#96000
b11100000'
#96200
b11100001'
#96400
b11100010'
#96600
b11100011'
#96800
b11100100'
#97000
b11100101'
#97200
b11100110'
#97400
b11100111'
#97600
b11101000'
#97800
b11101001'
#98000
1!
#98000
0"
#98000
1#
#98000
b11101010'
#98200
b11101011'
#98400
b11101100'
#98600
b11101101'
#98800
b11101110'
#99000
b11101111'
#99200
b11110000'
#99400
b11110001'
#99600
b11110010'
#99800
b11110011'